…
    ## Joining, by = "word"

``` r
wordft %>%
  count(word, sort = TRUE)
```

    ## # A tibble: 9,348 x 2
    ##    word           n
    ##    <chr>      <int>
    ##  1 population  1136
    ##  2 recapture    800
    ##  3 survival     646
    ##  4 capture      556
    ##  5 estimating   362
    ##  6 data         361
    ##  7 abundance    355
    ##  8 mark         343
    ##  9 size         315
    ## 10 density      299
    ## # … with 9,338 more rows
…
    ## Joining, by = "word"

``` r
wordab %>%
  count(word, sort = TRUE)
```

    ## # A tibble: 33,339 x 2
    ##    word            n
    ##    <chr>       <int>
    ##  1 population   9456
    ##  2 recapture    5760
    ##  3 survival     5742
    ##  4 species      5438
    ##  5 data         5366
    ##  6 capture      4158
    ##  7 study        4100
    ##  8 estimates    3660
    ##  9 mark         3434
    ## 10 individuals  3385
    ## # … with 33,329 more rows
…
