…
``` r
raw_dat %>% 
  group_by(journal) %>%
  filter(n() > 10) %>%
  ungroup() %>%
  count(journal)
```

    ## # A tibble: 107 x 2
    ##    journal                                                   n
    ##    <chr>                                                 <int>
    ##  1 AFRICAN JOURNAL OF ECOLOGY                               15
    ##  2 AFRICAN JOURNAL OF MARINE SCIENCE                        21
    ##  3 AMERICAN MIDLAND NATURALIST                              11
    ##  4 AMERICAN NATURALIST                                      14
    ##  5 AMPHIBIA-REPTILIA                                        20
    ##  6 ANIMAL BEHAVIOUR                                         11
    ##  7 ANIMAL CONSERVATION                                      25
    ##  8 ANNALS OF APPLIED STATISTICS                             18
    ##  9 AQUATIC CONSERVATION-MARINE AND FRESHWATER ECOSYSTEMS    17
    ## 10 ARDEA                                                    12
    ## # … with 97 more rows
…
